{
	"authors": [
		"Ferdinand Majerech"
	],
	"dependencies": {
		"emsi_containers": "~>0.7",
		"scone": ">=0.2.1",
		"stdx-allocator": "~>2.77.5"
	},
	"copyright": "Copyright © 2020, Ferdinand Majerech",
	"description": "Real-time tracing profiler.",
	"license": "GPL-3.0",
	"name": "timedilator"
}
